{
  "iisSettings": {
    "windowsAuthentication": false,
    "anonymousAuthentication": true,
    "iisExpress": {
      "applicationUrl": "http://localhost:21021/",
      "sslPort": 0
    }
  },
  "profiles": {
    "IIS Express": {
      "commandName": "IISExpress",
      "launchBrowser": true,
      "launchUrl": "http://localhost:21021/",
      "environmentVariables": {
        "ASPNETCORE_URLS": "http://localhost:21021/",
        "ASPNETCORE_ENVIRONMENT": "Development"
      }
    },
    "Application.Web.Host": {
      "commandName": "Project",
      "launchBrowser": true,
      "launchUrl": "http://localhost:21021/",
      "environmentVariables": {
        "ASPNETCORE_URLS": "http://localhost:21021/",
        "ASPNETCORE_ENVIRONMENT": "Development"
      }
    },
    "Docker": {
      "commandName": "Docker",
      "launchBrowser": true,
      "launchUrl": "{Scheme}://localhost:{ServicePort}"
    }
  }
}